{
  "locked": false,
  "version": -9998,
  "projectFileDependencyGroups": {
    "": [
      "System.Net.Http >= 4.0.0-beta-22816",
      "RestSharp >= 105.1.0",
      "Newtonsoft.Json >= 6.0.6"
    ],
    "DNX,Version=v4.5.1": []
  },
  "libraries": {
    "Newtonsoft.Json/6.0.6": {
      "serviceable": false,
      "sha": "w26uZNyCG5VeoKiEOJ4+9/o8koSofLKwHl7WLreIcp0U6r57L7WiRXmjp8MTKFw6dYNZ9AE0lw69WYbIhUsU9Q==",
      "frameworks": {
        "DNX,Version=v4.5.1": {
          "dependencies": {},
          "frameworkAssemblies": [],
          "runtimeAssemblies": [
            "lib/net45/Newtonsoft.Json.dll"
          ],
          "compileAssemblies": [
            "lib/net45/Newtonsoft.Json.dll"
          ]
        }
      },
      "files": [
        "Newtonsoft.Json.6.0.6.nupkg",
        "Newtonsoft.Json.6.0.6.nupkg.sha512",
        "Newtonsoft.Json.nuspec",
        "lib/net20/Newtonsoft.Json.dll",
        "lib/net20/Newtonsoft.Json.xml",
        "lib/net35/Newtonsoft.Json.dll",
        "lib/net35/Newtonsoft.Json.xml",
        "lib/net40/Newtonsoft.Json.dll",
        "lib/net40/Newtonsoft.Json.xml",
        "lib/net45/Newtonsoft.Json.dll",
        "lib/net45/Newtonsoft.Json.xml",
        "lib/netcore45/Newtonsoft.Json.dll",
        "lib/netcore45/Newtonsoft.Json.xml",
        "lib/portable-net40+sl5+wp80+win8+wpa81/Newtonsoft.Json.dll",
        "lib/portable-net40+sl5+wp80+win8+wpa81/Newtonsoft.Json.xml",
        "lib/portable-net45+wp80+win8+wpa81+aspnetcore50/Newtonsoft.Json.dll",
        "lib/portable-net45+wp80+win8+wpa81+aspnetcore50/Newtonsoft.Json.xml",
        "tools/install.ps1"
      ]
    },
    "RestSharp/105.1.0": {
      "serviceable": false,
      "sha": "2DRH1cpTOJwesBOwQ0cIhVHUmupbRKt+tdSatfdvndvsawsGMIEgrbq8yv6g3GM1MRVcb37bT8LACVFsqITDmg==",
      "frameworks": {
        "DNX,Version=v4.5.1": {
          "dependencies": {},
          "frameworkAssemblies": [],
          "runtimeAssemblies": [
            "lib/net452/RestSharp.dll"
          ],
          "compileAssemblies": [
            "lib/net452/RestSharp.dll"
          ]
        }
      },
      "files": [
        "readme.txt",
        "RestSharp.105.1.0.nupkg",
        "RestSharp.105.1.0.nupkg.sha512",
        "RestSharp.nuspec",
        "lib/net35/RestSharp.dll",
        "lib/net35/RestSharp.xml",
        "lib/net35-client/RestSharp.dll",
        "lib/net35-client/RestSharp.xml",
        "lib/net4/RestSharp.dll",
        "lib/net4/RestSharp.xml",
        "lib/net4-client/RestSharp.dll",
        "lib/net4-client/RestSharp.xml",
        "lib/net45/RestSharp.dll",
        "lib/net45/RestSharp.xml",
        "lib/net45-client/RestSharp.dll",
        "lib/net45-client/RestSharp.xml",
        "lib/net451/RestSharp.dll",
        "lib/net451/RestSharp.xml",
        "lib/net451-client/RestSharp.dll",
        "lib/net451-client/RestSharp.xml",
        "lib/net452/RestSharp.dll",
        "lib/net452/RestSharp.xml",
        "lib/net452-client/RestSharp.dll",
        "lib/net452-client/RestSharp.xml",
        "lib/sl4/RestSharp.Silverlight.dll",
        "lib/sl4/RestSharp.Silverlight.xml",
        "lib/windowsphone8/RestSharp.WindowsPhone.dll",
        "lib/windowsphone8/RestSharp.WindowsPhone.xml"
      ]
    },
    "System.IO/4.0.10-beta-22816": {
      "serviceable": false,
      "sha": "/wVhoi2uVXw5IZFU+JrPlyVgKrtMPtzQaYQ3DKUxH9nqiX64BChTFGNDcwZK3iNWTIWESxJhj9JR3lbqbG/PIg==",
      "frameworks": {
        "DNX,Version=v4.5.1": {
          "dependencies": {
            "System.Runtime": "4.0.20-beta-22816",
            "System.Text.Encoding": "4.0.10-beta-22816",
            "System.Threading.Tasks": "4.0.10-beta-22816"
          },
          "frameworkAssemblies": [
            "mscorlib",
            "System"
          ],
          "runtimeAssemblies": [
            "lib/net45/System.IO.dll"
          ],
          "compileAssemblies": [
            "lib/net45/System.IO.dll"
          ]
        }
      },
      "files": [
        "License.rtf",
        "System.IO.4.0.10-beta-22816.nupkg",
        "System.IO.4.0.10-beta-22816.nupkg.sha512",
        "System.IO.nuspec",
        "lib/aspnetcore50/System.IO.dll",
        "lib/contract/System.IO.dll",
        "lib/net45/System.IO.dll",
        "lib/portable-wpa81+wp80+win80+net45+aspnetcore50/System.IO.dll"
      ]
    },
    "System.Net.Http/4.0.0-beta-22816": {
      "serviceable": false,
      "sha": "cumH4jT7bRcFiShwZWGHvk3WPJtifAnWMyCnjOE/Eadppza6UHjHiOa3YjwaQwMPg1Cib3fELHbJ4hyOiTBnNw==",
      "frameworks": {
        "DNX,Version=v4.5.1": {
          "dependencies": {
            "System.IO": "4.0.10-beta-22816",
            "System.Net.Primitives": "4.0.10-beta-22816",
            "System.Runtime": "4.0.20-beta-22816",
            "System.Text.Encoding": "4.0.10-beta-22816",
            "System.Threading.Tasks": "4.0.10-beta-22816"
          },
          "frameworkAssemblies": [],
          "runtimeAssemblies": [],
          "compileAssemblies": []
        }
      },
      "files": [
        "License.rtf",
        "System.Net.Http.4.0.0-beta-22816.nupkg",
        "System.Net.Http.4.0.0-beta-22816.nupkg.sha512",
        "System.Net.Http.nuspec",
        "lib/aspnetcore50/System.Net.Http.dll",
        "lib/contract/System.Net.Http.dll",
        "lib/net45/_._",
        "lib/portable-wpa81+wp80+win80+net45+aspnetcore50/System.Net.Http.dll"
      ]
    },
    "System.Net.Primitives/4.0.10-beta-22816": {
      "serviceable": false,
      "sha": "qjGWAfaOkFxhOvk10zmUgUPOl2ae+ECrNiHBXPnPlaU7o+1GmsPkkc9L1XNQ4J5+qKS85JZSRUZZviVmiVy1Rw==",
      "frameworks": {
        "DNX,Version=v4.5.1": {
          "dependencies": {
            "System.Runtime": "4.0.20-beta-22816",
            "System.Runtime.Handles": "4.0.0-beta-22816"
          },
          "frameworkAssemblies": [
            "mscorlib",
            "System"
          ],
          "runtimeAssemblies": [
            "lib/net45/System.Net.Primitives.dll"
          ],
          "compileAssemblies": [
            "lib/net45/System.Net.Primitives.dll"
          ]
        }
      },
      "files": [
        "License.rtf",
        "System.Net.Primitives.4.0.10-beta-22816.nupkg",
        "System.Net.Primitives.4.0.10-beta-22816.nupkg.sha512",
        "System.Net.Primitives.nuspec",
        "lib/aspnetcore50/System.Net.Primitives.dll",
        "lib/contract/System.Net.Primitives.dll",
        "lib/net45/System.Net.Primitives.dll",
        "lib/portable-wpa81+wp80+win80+net45+aspnetcore50/System.Net.Primitives.dll"
      ]
    },
    "System.Runtime/4.0.20-beta-22816": {
      "serviceable": false,
      "sha": "sDSJEmM6Q5O7Nn9XxHTrsEJ4bv4hsBdeTWjuvyzd9/u9ujl9AWa3q1XFLrdPZetILPOC1P0+1LOCq4kZcsKF5Q==",
      "frameworks": {
        "DNX,Version=v4.5.1": {
          "dependencies": {},
          "frameworkAssemblies": [
            "mscorlib",
            "System",
            "System.ComponentModel.Composition",
            "System.Core"
          ],
          "runtimeAssemblies": [
            "lib/net45/System.Runtime.dll"
          ],
          "compileAssemblies": [
            "lib/net45/System.Runtime.dll"
          ]
        }
      },
      "files": [
        "License.rtf",
        "System.Runtime.4.0.20-beta-22816.nupkg",
        "System.Runtime.4.0.20-beta-22816.nupkg.sha512",
        "System.Runtime.nuspec",
        "lib/aspnetcore50/System.Runtime.dll",
        "lib/contract/System.Runtime.dll",
        "lib/net45/System.Runtime.dll",
        "lib/portable-wpa81+wp80+win80+net45+aspnetcore50/System.Runtime.dll"
      ]
    },
    "System.Runtime.Handles/4.0.0-beta-22816": {
      "serviceable": false,
      "sha": "t0hDCtbwOKLBTcyiXHYRfaVb8pXCFYjGDWjmgyaaqmiXYtfzDlUHQ7NGaKHLOzcp29UunHZyS1CVplJ5ZiQ8Qg==",
      "frameworks": {
        "DNX,Version=v4.5.1": {
          "dependencies": {
            "System.Runtime": "4.0.20-beta-22816"
          },
          "frameworkAssemblies": [
            "mscorlib",
            "System.Core"
          ],
          "runtimeAssemblies": [
            "lib/net45/System.Runtime.Handles.dll"
          ],
          "compileAssemblies": [
            "lib/net45/System.Runtime.Handles.dll"
          ]
        }
      },
      "files": [
        "License.rtf",
        "System.Runtime.Handles.4.0.0-beta-22816.nupkg",
        "System.Runtime.Handles.4.0.0-beta-22816.nupkg.sha512",
        "System.Runtime.Handles.nuspec",
        "lib/aspnetcore50/System.Runtime.Handles.dll",
        "lib/contract/System.Runtime.Handles.dll",
        "lib/net45/System.Runtime.Handles.dll",
        "lib/portable-wpa81+wp80+win80+net45+aspnetcore50/System.Runtime.Handles.dll"
      ]
    },
    "System.Text.Encoding/4.0.10-beta-22816": {
      "serviceable": false,
      "sha": "QDKTAvat7aDGMWnVkGm6tJvvmc2zSTa/p8M4/OEBBkZKNx4SGkeGEjFUhl7b6AXZ220m4dACygkiAVoB/LqMHw==",
      "frameworks": {
        "DNX,Version=v4.5.1": {
          "dependencies": {
            "System.Runtime": "4.0.20-beta-22816"
          },
          "frameworkAssemblies": [
            "mscorlib"
          ],
          "runtimeAssemblies": [
            "lib/net45/System.Text.Encoding.dll"
          ],
          "compileAssemblies": [
            "lib/net45/System.Text.Encoding.dll"
          ]
        }
      },
      "files": [
        "License.rtf",
        "System.Text.Encoding.4.0.10-beta-22816.nupkg",
        "System.Text.Encoding.4.0.10-beta-22816.nupkg.sha512",
        "System.Text.Encoding.nuspec",
        "lib/aspnetcore50/System.Text.Encoding.dll",
        "lib/contract/System.Text.Encoding.dll",
        "lib/net45/System.Text.Encoding.dll",
        "lib/portable-wpa81+wp80+win80+net45+aspnetcore50/System.Text.Encoding.dll"
      ]
    },
    "System.Threading.Tasks/4.0.10-beta-22816": {
      "serviceable": false,
      "sha": "e7TcoQuIPQ4bvkkCY2ulU8NFvj8XqYxsGpD3fAq1KajAlpx5j327Q13lKxlGPb7ouHQydKHCy5G1ZGuydb0DAA==",
      "frameworks": {
        "DNX,Version=v4.5.1": {
          "dependencies": {
            "System.Runtime": "4.0.20-beta-22816"
          },
          "frameworkAssemblies": [
            "mscorlib",
            "System.Core"
          ],
          "runtimeAssemblies": [
            "lib/net45/System.Threading.Tasks.dll"
          ],
          "compileAssemblies": [
            "lib/net45/System.Threading.Tasks.dll"
          ]
        }
      },
      "files": [
        "License.rtf",
        "System.Threading.Tasks.4.0.10-beta-22816.nupkg",
        "System.Threading.Tasks.4.0.10-beta-22816.nupkg.sha512",
        "System.Threading.Tasks.nuspec",
        "lib/aspnetcore50/System.Threading.Tasks.dll",
        "lib/contract/System.Threading.Tasks.dll",
        "lib/net45/System.Threading.Tasks.dll",
        "lib/portable-wpa81+wp80+win80+net45+aspnetcore50/System.Threading.Tasks.dll"
      ]
    }
  }
}